simulation.vcd
$date
	Wed Jan 14 10:57:26 2026
$end
$version
	Icarus Verilog
$end
$timescale
	1s
$end
$scope module compute_core_tb $end
$scope module uut $end
$var wire 1 ! clk $end
$var wire 1 " reset $end
$var wire 4 # src2_reg [3:0] $end
$var wire 4 $ src1_reg [3:0] $end
$var wire 3 % scheduled_thread [2:0] $end
$var wire 4 & opcode [3:0] $end
$var wire 16 ' instruction [15:0] $end
$var wire 8 ( immediate [7:0] $end
$var wire 4 ) dest_reg [3:0] $end
$var wire 16 * alu_result [15:0] $end
$var wire 1 + alu_cmp_flag $end
$var reg 8 , active_threads [7:0] $end
$var reg 16 - alu_operand_a [15:0] $end
$var reg 16 . alu_operand_b [15:0] $end
$var reg 8 / cmp_flags [7:0] $end
$var reg 1 0 halt $end
$var reg 8 1 next_active_threads [7:0] $end
$var integer 32 2 current_thread [31:0] $end
$var integer 32 3 i [31:0] $end
$scope module alu_inst $end
$var wire 16 4 operand_a [15:0] $end
$var wire 16 5 operand_b [15:0] $end
$var wire 4 6 opcode [3:0] $end
$var reg 1 + cmp_flag $end
$var reg 16 7 result [15:0] $end
$upscope $end
$scope module decoder_inst $end
$var wire 16 8 instruction [15:0] $end
$var reg 4 9 dest_reg [3:0] $end
$var reg 8 : immediate [7:0] $end
$var reg 4 ; opcode [3:0] $end
$var reg 4 < src1_reg [3:0] $end
$var reg 4 = src2_reg [3:0] $end
$upscope $end
$scope module fetcher_inst $end
$var wire 16 > instruction [15:0] $end
$var wire 4 ? pc_in [3:0] $end
$var integer 32 @ i [31:0] $end
$upscope $end
$scope module scheduler_inst $end
$var wire 8 A active_threads [7:0] $end
$var wire 1 ! clk $end
$var wire 1 " reset $end
$var parameter 32 B NUM_THREADS $end
$var reg 3 C scheduled_thread [2:0] $end
$var reg 1 D thread_found $end
$var integer 32 E i [31:0] $end
$var integer 32 F last_thread [31:0] $end
$var integer 32 G thread [31:0] $end
$upscope $end
$upscope $end
$upscope $end
$enddefinitions $end
$comment Show the parameter values. $end
$dumpall
b1000 B
$end
#0
$dumpvars
bx G
b11111111111111111111111111111111 F
bx E
xD
b0 C
b11111111 A
b10000 @
b0 ?
b110000000000000 >
b0 =
b0 <
b110 ;
bx :
b0 9
b110000000000000 8
b0 7
b110 6
bx 5
bx 4
b1000 3
b10000 2
bx 1
00
b0 /
bx .
bx -
b11111111 ,
0+
b0 *
b0 )
bx (
b110000000000000 '
b110 &
b0 %
b0 $
b0 #
1"
0!
$end
#5
b10000 2
b1000 3
1!
#10
0!
0"
#15
b1 #
b1 =
b1 )
b1 9
b0 F
b110000100000001 '
b110000100000001 8
b110000100000001 >
b1 ?
b111 G
b1001 E
1D
b0 .
b0 5
b0 -
b0 4
b0 2
b11111111 1
1!
#20
0!
#25
b0 #
b0 =
b0 )
b0 9
b1 F
b110000000000000 '
b110000000000000 8
b110000000000000 >
b0 ?
b1 %
b1 C
b0 G
b1001 E
1D
1!
#30
0!
#35
b10 F
b10 %
b10 C
b110000000000000 '
b110000000000000 8
b110000000000000 >
b0 ?
b1 G
b1001 E
1D
b1 2
1!
#40
0!
#45
b11 F
b11 %
b11 C
b10 2
b10 G
b1001 E
1D
1!
#50
0!
#55
b100 F
b100 %
b100 C
b110000000000000 '
b110000000000000 8
b110000000000000 >
b0 ?
b11 G
b1001 E
1D
b11 2
1!
#60
0!
#65
b101 F
b101 %
b101 C
b100 2
b100 G
b1001 E
1D
1!
#70
0!
#75
b110 F
b110 %
b110 C
b110000000000000 '
b110000000000000 8
b110000000000000 >
b0 ?
b101 G
b1001 E
1D
b101 2
1!
#80
0!
#85
b111 F
b111 %
b111 C
b110 2
b110 G
b1001 E
1D
1!
#90
0!
#95
b1 #
b1 =
b10 $
b10 <
b10 )
b10 9
b0 &
b0 6
b0 ;
b0 F
b0 %
b0 C
b1000100001 '
b1000100001 8
b1000100001 >
b10 ?
b111 G
b1001 E
1D
b111 2
1!
#100
0!
#105
b0 $
b0 <
b1 )
b1 9
b110 &
b110 6
b110 ;
b1 F
b110000100000001 '
b110000100000001 8
b110000100000001 >
b1 ?
b1 %
b1 C
b0 *
b0 7
bx .
bx 5
b0 2
b0 G
b1001 E
1D
1!
#110
0!
#115
b10 F
b10 %
b10 C
b110000100000001 '
b110000100000001 8
b110000100000001 >
b1 ?
b1 G
b1001 E
1D
b0 .
b0 5
b1 2
1!
#120
0!
#125
b11 F
b11 %
b11 C
b10 2
b10 G
b1001 E
1D
1!
#130
0!
#135
b100 F
b100 %
b100 C
b110000100000001 '
b110000100000001 8
b110000100000001 >
b1 ?
b11 G
b1001 E
1D
b11 2
1!
#140
0!
#145
b101 F
b101 %
b101 C
b100 2
b100 G
b1001 E
1D
1!
#150
0!
#155
b110 F
b110 %
b110 C
b110000100000001 '
b110000100000001 8
b110000100000001 >
b1 ?
b101 G
b1001 E
1D
b101 2
1!
#160
0!
#165
b111 F
b111 %
b111 C
b110 2
b110 G
b1001 E
1D
1!
#170
0!
#175
b0 #
b0 =
b1 $
b1 <
b10 )
b10 9
b1000 &
b1000 6
b1000 ;
b0 F
b0 %
b0 C
b1000001000010000 '
b1000001000010000 8
b1000001000010000 >
b11 ?
b111 G
b1001 E
1D
b111 2
1!
#180
0!
#185
bx *
bx 7
b1 #
b1 =
b10 $
b10 <
b0 &
b0 6
b0 ;
b1 F
b1000100001 '
b1000100001 8
b1000100001 >
b10 ?
b1 %
b1 C
bx .
bx 5
b0 2
b0 G
b1001 E
1D
1!
#190
0!
#195
b10 F
b10 %
b10 C
b1000100001 '
b1000100001 8
b1000100001 >
b10 ?
b1 G
b1001 E
1D
b1 2
1!
#200
0!
#205
b11 F
b11 %
b11 C
b10 2
b10 G
b1001 E
1D
1!
#210
0!
#215
b100 F
b100 %
b100 C
b1000100001 '
b1000100001 8
b1000100001 >
b10 ?
b11 G
b1001 E
1D
b11 2
1!
#220
0!
#225
b101 F
b101 %
b101 C
b100 2
b100 G
b1001 E
1D
1!
#230
0!
#235
b110 F
b110 %
b110 C
b1000100001 '
b1000100001 8
b1000100001 >
b10 ?
b101 G
b1001 E
1D
b101 2
1!
#240
0!
#245
b111 F
b111 %
b111 C
b110 2
b110 G
b1001 E
1D
1!
#250
0!
#255
bx *
bx 7
b0 #
b0 =
b11 $
b11 <
b11 )
b11 9
b1 &
b1 6
b1 ;
b0 F
b0 %
b0 C
b1001100110000 '
b1001100110000 8
b1001100110000 >
b100 ?
b111 G
b1001 E
1D
b111 2
1!
#260
0!
#265
b0 *
b0 7
b1 $
b1 <
b10 )
b10 9
b1000 &
b1000 6
b1000 ;
b1 F
b1000001000010000 '
b1000001000010000 8
b1000001000010000 >
b11 ?
b1 %
b1 C
b0 2
b0 G
b1001 E
1D
1!
#270
0!
#275
b10 F
b10 %
b10 C
b1000001000010000 '
b1000001000010000 8
b1000001000010000 >
b11 ?
b1 G
b1001 E
1D
bx -
bx 4
b1 2
1!
#280
0!
#285
b11 F
b11 %
b11 C
b10 2
b10 G
b1001 E
1D
1!
#290
0!
#295
b100 F
b100 %
b100 C
b1000001000010000 '
b1000001000010000 8
b1000001000010000 >
b11 ?
b11 G
b1001 E
1D
b11 2
1!
#300
0!
#305
b101 F
b101 %
b101 C
b100 2
b100 G
b1001 E
1D
1!
#310
0!
#315
b110 F
b110 %
b110 C
b1000001000010000 '
b1000001000010000 8
b1000001000010000 >
b11 ?
b101 G
b1001 E
1D
b101 2
1!
#320
0!
#325
b111 F
b111 %
b111 C
b110 2
b110 G
b1001 E
1D
1!
#330
0!
#335
b10 #
b10 =
b11 $
b11 <
b0 )
b0 9
b11 &
b11 6
b11 ;
b0 F
b0 %
b0 C
b11000000110010 '
b11000000110010 8
b11000000110010 >
b101 ?
b111 G
b1001 E
1D
b111 2
1!
#340
0!
#345
bx *
bx 7
b0 #
b0 =
b11 )
b11 9
b1 &
b1 6
b1 ;
b1 F
b1001100110000 '
b1001100110000 8
b1001100110000 >
b100 ?
b1 %
b1 C
b0 .
b0 5
b0 2
b0 G
b1001 E
1D
1!
#350
0!
#355
b10 F
b10 %
b10 C
b1001100110000 '
b1001100110000 8
b1001100110000 >
b100 ?
bx *
bx 7
b1 G
b1001 E
1D
bx .
bx 5
b0 -
b0 4
b1 2
1!
#360
0!
#365
b11 F
b11 %
b11 C
b10 2
b10 G
b1001 E
1D
1!
#370
0!
#375
b100 F
b100 %
b100 C
b1001100110000 '
b1001100110000 8
b1001100110000 >
b100 ?
b11 G
b1001 E
1D
b11 2
1!
#380
0!
#385
b101 F
b101 %
b101 C
b100 2
b100 G
b1001 E
1D
1!
#390
0!
#395
b110 F
b110 %
b110 C
b1001100110000 '
b1001100110000 8
b1001100110000 >
b100 ?
b101 G
b1001 E
1D
b101 2
1!
#400
0!
#405
b111 F
b111 %
b111 C
b110 2
b110 G
b1001 E
1D
1!
#410
0!
#415
b0 *
b0 7
b1011 #
b1011 =
b0 $
b0 <
b0 )
b0 9
b101 &
b101 6
b101 ;
b0 F
b0 %
b0 C
b101000000001011 '
b101000000001011 8
b101000000001011 >
b110 ?
b111 G
b1001 E
1D
b111 2
1!
#420
0!
#425
b10 #
b10 =
b11 $
b11 <
b11 &
b11 6
b11 ;
b1 F
b11000000110010 '
b11000000110010 8
b11000000110010 >
b101 ?
b1 %
b1 C
b0 .
b0 5
b0 2
b0 G
b1001 E
1D
1!
#430
0!
#435
b10 F
b10 %
b10 C
b11000000110010 '
b11000000110010 8
b11000000110010 >
b101 ?
b1 G
b1001 E
1D
bx -
bx 4
b1 2
1!
#440
0!
#445
b11 F
b11 %
b11 C
b10 2
b10 G
b1001 E
1D
1!
#450
0!
#455
b100 F
b100 %
b100 C
b11000000110010 '
b11000000110010 8
b11000000110010 >
b101 ?
b11 G
b1001 E
1D
b11 2
1!
#460
0!
#465
b101 F
b101 %
b101 C
b100 2
b100 G
b1001 E
1D
1!
#470
0!
#475
b110 F
b110 %
b110 C
b11000000110010 '
b11000000110010 8
b11000000110010 >
b101 ?
b101 G
b1001 E
1D
b101 2
1!
#480
0!
#485
b111 F
b111 %
b111 C
b110 2
b110 G
b1001 E
1D
1!
#490
0!
#495
bx *
bx 7
b11 #
b11 =
b100 $
b100 <
b100 )
b100 9
b10 &
b10 6
b10 ;
b0 F
b0 %
b0 C
b10010001000011 '
b10010001000011 8
b10010001000011 >
b111 ?
b111 G
b1001 E
1D
b111 2
1!
#500
0!
#505
b1011 #
b1011 =
b0 $
b0 <
b0 )
b0 9
b101 &
b101 6
b101 ;
b1 F
b101000000001011 '
b101000000001011 8
b101000000001011 >
b110 ?
b1 %
b1 C
b0 *
b0 7
bx .
bx 5
b0 -
b0 4
b0 2
b0 G
b1001 E
1D
1!
#510
0!
#515
b10 F
b10 %
b10 C
b101000000001011 '
b101000000001011 8
b101000000001011 >
b110 ?
b1 G
b1001 E
1D
b0 .
b0 5
b1 2
1!
#520
0!
#525
b11 F
b11 %
b11 C
b10 2
b10 G
b1001 E
1D
1!
#530
0!
#535
b100 F
b100 %
b100 C
b101000000001011 '
b101000000001011 8
b101000000001011 >
b110 ?
b11 G
b1001 E
1D
b11 2
1!
#540
0!
#545
b101 F
b101 %
b101 C
b100 2
b100 G
b1001 E
1D
1!
#550
0!
#555
b110 F
b110 %
b110 C
b101000000001011 '
b101000000001011 8
b101000000001011 >
b110 ?
b101 G
b1001 E
1D
b101 2
1!
#560
0!
#565
b111 F
b111 %
b111 C
b110 2
b110 G
b1001 E
1D
1!
#570
0!
#575
b10 #
b10 =
b100 )
b100 9
b111 &
b111 6
b111 ;
b0 F
b0 %
b0 C
b111010000000010 '
b111010000000010 8
b111010000000010 >
b1000 ?
b111 G
b1001 E
1D
b111 2
1!
#580
0!
#585
b11 #
b11 =
b100 $
b100 <
b10 &
b10 6
b10 ;
b1 F
b10010001000011 '
b10010001000011 8
b10010001000011 >
b111 ?
b1 %
b1 C
b0 2
b0 G
b1001 E
1D
1!
#590
0!
#595
b10 F
b10 %
b10 C
b10010001000011 '
b10010001000011 8
b10010001000011 >
b111 ?
bx *
bx 7
b1 G
b1001 E
1D
bx .
bx 5
b1 2
1!
#600
0!
#605
b11 F
b11 %
b11 C
b10 2
b10 G
b1001 E
1D
1!
#610
0!
#615
b100 F
b100 %
b100 C
b10010001000011 '
b10010001000011 8
b10010001000011 >
b111 ?
b11 G
b1001 E
1D
b11 2
1!
#620
0!
#625
b101 F
b101 %
b101 C
b100 2
b100 G
b1001 E
1D
1!
#630
0!
#635
b110 F
b110 %
b110 C
b10010001000011 '
b10010001000011 8
b10010001000011 >
b111 ?
b101 G
b1001 E
1D
b101 2
1!
#640
0!
#645
b111 F
b111 %
b111 C
b110 2
b110 G
b1001 E
1D
1!
#650
0!
#655
b0 *
b0 7
b0 #
b0 =
b0 $
b0 <
b0 )
b0 9
b1111 &
b1111 6
b1111 ;
b0 F
b0 %
b0 C
b1111000000000000 '
b1111000000000000 8
b1111000000000000 >
b1001 ?
b111 G
b1001 E
1D
b111 2
1!
#660
0!
#665
b10 #
b10 =
b100 )
b100 9
b111 &
b111 6
b111 ;
b11111110 ,
b11111110 A
b1 F
b111010000000010 '
b111010000000010 8
b111010000000010 >
b1000 ?
b1 %
b1 C
b11111110 1
b0 .
b0 5
b0 2
b0 G
b1001 E
1D
1!
#670
0!
#675
b10 F
b10 %
b10 C
b111010000000010 '
b111010000000010 8
b111010000000010 >
b1000 ?
b1 G
b1001 E
1D
b1 2
1!
#680
0!
#685
b11 F
b11 %
b11 C
b10 2
b10 G
b1001 E
1D
1!
#690
0!
#695
b100 F
b100 %
b100 C
b111010000000010 '
b111010000000010 8
b111010000000010 >
b1000 ?
b11 G
b1001 E
1D
b11 2
1!
#700
0!
#705
b101 F
b101 %
b101 C
b100 2
b100 G
b1001 E
1D
1!
#710
0!
#715
b110 F
b110 %
b110 C
b111010000000010 '
b111010000000010 8
b111010000000010 >
b1000 ?
b101 G
b1001 E
1D
b101 2
1!
#720
0!
#725
b111 F
b111 %
b111 C
b110 2
b110 G
b1001 E
1D
1!
#730
0!
#735
b0 #
b0 =
b0 )
b0 9
b1111 &
b1111 6
b1111 ;
b1 F
b1 %
b1 C
b1111000000000000 '
b1111000000000000 8
b1111000000000000 >
b1001 ?
b111 G
b1001 E
1D
b111 2
1!
#740
0!
#745
b11111100 ,
b11111100 A
b10 F
b10 %
b10 C
b11111100 1
b1 2
b1 G
b1001 E
1D
1!
#750
0!
#755
b11 F
b11 %
b11 C
b11111000 ,
b11111000 A
b10 G
b1001 E
1D
b11111000 1
b10 2
1!
#760
0!
#765
b11110000 ,
b11110000 A
b100 F
b100 %
b100 C
b11110000 1
b11 2
b11 G
b1001 E
1D
1!
#770
0!
#775
b101 F
b101 %
b101 C
b11100000 ,
b11100000 A
b100 G
b1001 E
1D
b11100000 1
b100 2
1!
#780
0!
#785
b11000000 ,
b11000000 A
b110 F
b110 %
b110 C
b11000000 1
b101 2
b101 G
b1001 E
1D
1!
#790
0!
#795
b111 F
b111 %
b111 C
b10000000 ,
b10000000 A
b110 G
b1001 E
1D
b10000000 1
b110 2
1!
#800
0!
#805
10
b0 ,
b0 A
b0 1
b111 2
b111 G
b1001 E
1D
1!
#810
0!
#815
b111 G
b1001 E
0D
1!
#820
0!
#825
b111 G
b1001 E
1!
#830
0!
#835
b111 G
b1001 E
1!
#840
0!
#845
b111 G
b1001 E
1!
#850
0!
#855
b111 G
b1001 E
1!
