simulation.vcd
$date
	Wed Jan  7 06:22:39 2026
$end
$version
	Icarus Verilog
$end
$timescale
	1s
$end
$scope module compute_core_tb $end
$scope module uut $end
$var wire 1 ! clk $end
$var wire 1 " reset $end
$var wire 4 # src2_reg [3:0] $end
$var wire 4 $ src1_reg [3:0] $end
$var wire 3 % scheduled_thread [2:0] $end
$var wire 4 & opcode [3:0] $end
$var wire 16 ' instruction [15:0] $end
$var wire 8 ( immediate [7:0] $end
$var wire 4 ) dest_reg [3:0] $end
$var wire 16 * alu_result [15:0] $end
$var wire 1 + alu_cmp_flag $end
$var reg 8 , active_threads [7:0] $end
$var reg 16 - alu_operand_a [15:0] $end
$var reg 16 . alu_operand_b [15:0] $end
$var reg 8 / cmp_flags [7:0] $end
$var reg 1 0 halt $end
$var reg 8 1 next_active_threads [7:0] $end
$var integer 32 2 current_thread [31:0] $end
$var integer 32 3 i [31:0] $end
$scope module alu_inst $end
$var wire 16 4 operand_a [15:0] $end
$var wire 16 5 operand_b [15:0] $end
$var wire 4 6 opcode [3:0] $end
$var reg 1 + cmp_flag $end
$var reg 16 7 result [15:0] $end
$upscope $end
$scope module decoder_inst $end
$var wire 16 8 instruction [15:0] $end
$var reg 4 9 dest_reg [3:0] $end
$var reg 8 : immediate [7:0] $end
$var reg 4 ; opcode [3:0] $end
$var reg 4 < src1_reg [3:0] $end
$var reg 4 = src2_reg [3:0] $end
$upscope $end
$scope module fetcher_inst $end
$var wire 16 > instruction [15:0] $end
$var wire 4 ? pc_in [3:0] $end
$var integer 32 @ i [31:0] $end
$upscope $end
$scope module scheduler_inst $end
$var wire 8 A active_threads [7:0] $end
$var wire 1 ! clk $end
$var wire 1 " reset $end
$var parameter 32 B NUM_THREADS $end
$var reg 3 C scheduled_thread [2:0] $end
$var reg 1 D thread_found $end
$var integer 32 E i [31:0] $end
$var integer 32 F last_thread [31:0] $end
$var integer 32 G thread [31:0] $end
$upscope $end
$upscope $end
$upscope $end
$enddefinitions $end
$comment Show the parameter values. $end
$dumpall
b1000 B
$end
#0
$dumpvars
bx G
b11111111111111111111111111111111 F
bx E
xD
b0 C
b11111111 A
b10000 @
b0 ?
b110000000000000 >
b0 =
b0 <
b110 ;
b0 :
b0 9
b110000000000000 8
b0 7
b110 6
bx 5
bx 4
b1000 3
b10000 2
bx 1
00
b0 /
bx .
bx -
b11111111 ,
0+
b0 *
b0 )
b0 (
b110000000000000 '
b110 &
b0 %
b0 $
b0 #
1"
0!
$end
#5
b10000 2
b1000 3
1!
#10
0!
0"
#15
b1 (
b1 :
b1 #
b1 =
b1 )
b1 9
b0 F
b110000100000001 '
b110000100000001 8
b110000100000001 >
b1 ?
b111 G
b1001 E
1D
b0 .
b0 5
b0 -
b0 4
b0 2
b11111111 1
1!
#20
0!
#25
b0 (
b0 :
b0 #
b0 =
b0 )
b0 9
b1 F
b110000000000000 '
b110000000000000 8
b110000000000000 >
b0 ?
b1 %
b1 C
b0 G
b1001 E
1D
1!
#30
0!
#35
b10 F
b10 %
b10 C
b110000000000000 '
b110000000000000 8
b110000000000000 >
b0 ?
b1 G
b1001 E
1D
b1 2
1!
#40
0!
#45
b11 F
b11 %
b11 C
b10 2
b10 G
b1001 E
1D
1!
#50
0!
#55
b100 F
b100 %
b100 C
b110000000000000 '
b110000000000000 8
b110000000000000 >
b0 ?
b11 G
b1001 E
1D
b11 2
1!
#60
0!
#65
b101 F
b101 %
b101 C
b100 2
b100 G
b1001 E
1D
1!
#70
0!
#75
b110 F
b110 %
b110 C
b110000000000000 '
b110000000000000 8
b110000000000000 >
b0 ?
b101 G
b1001 E
1D
b101 2
1!
#80
0!
#85
b111 F
b111 %
b111 C
b110 2
b110 G
b1001 E
1D
1!
#90
0!
#95
b100001 (
b100001 :
b1 #
b1 =
b10 $
b10 <
b10 )
b10 9
b0 &
b0 6
b0 ;
b0 F
b0 %
b0 C
b1000100001 '
b1000100001 8
b1000100001 >
b10 ?
b111 G
b1001 E
1D
b111 2
1!
#100
0!
#105
b1 (
b1 :
b0 $
b0 <
b1 )
b1 9
b110 &
b110 6
b110 ;
b1 F
b110000100000001 '
b110000100000001 8
b110000100000001 >
b1 ?
b1 %
b1 C
b0 *
b0 7
b101 .
b101 5
b0 2
b0 G
b1001 E
1D
1!
#110
0!
#115
b10 F
b10 %
b10 C
b110000100000001 '
b110000100000001 8
b110000100000001 >
b1 ?
b1 G
b1001 E
1D
b0 .
b0 5
b1 2
1!
#120
0!
#125
b11 F
b11 %
b11 C
b10 2
b10 G
b1001 E
1D
1!
#130
0!
#135
b100 F
b100 %
b100 C
b110000100000001 '
b110000100000001 8
b110000100000001 >
b1 ?
b11 G
b1001 E
1D
b11 2
1!
#140
0!
#145
b101 F
b101 %
b101 C
b100 2
b100 G
b1001 E
1D
1!
#150
0!
#155
b110 F
b110 %
b110 C
b110000100000001 '
b110000100000001 8
b110000100000001 >
b1 ?
b101 G
b1001 E
1D
b101 2
1!
#160
b0 (
b0 :
b0 #
b0 =
b0 )
b0 9
b110000000000000 '
b110000000000000 8
b110000000000000 >
b0 ?
b0 %
b0 C
b11111111111111111111111111111111 F
b10000 2
b1000 3
0!
1"
#165
b10000 2
b1000 3
1!
#170
0!
0"
#175
b1 (
b1 :
b1 #
b1 =
b1 )
b1 9
b110000100000001 '
b110000100000001 8
b110000100000001 >
b1 ?
b0 F
b0 2
b111 G
b1001 E
1D
1!
#180
0!
#185
b0 (
b0 :
b0 #
b0 =
b0 )
b0 9
b1 F
b1 %
b1 C
b110000000000000 '
b110000000000000 8
b110000000000000 >
b0 ?
b0 G
b1001 E
1D
1!
#190
0!
#195
b10 F
b10 %
b10 C
b1 2
b1 G
b1001 E
1D
1!
#200
0!
#205
b11 F
b11 %
b11 C
b110000000000000 '
b110000000000000 8
b110000000000000 >
b0 ?
b10 G
b1001 E
1D
b10 2
1!
#210
0!
#215
b100 F
b100 %
b100 C
b11 2
b11 G
b1001 E
1D
1!
